{
  "name": "cod_pt-BR",
  "title": "Português (Brasil) [CoD 2e]",
  "description": "<p>Adiciona o idioma Português (Brasil) para o sistema de jogo Chronicles of Darkness 2E.</p><p>Obs. Esse módulo traduz somente os termos relacionados ao sistema Chronicles of Darkness 2E. Esse módulo não traduz outras partes do Foundry VTT, como a interface principal.</p>",
  "version": "1.0.2",
  "minimumCoreVersion": "0.6.2",
  "compatibleCoreVersion": "0.7.9",
  "authors": [
    {
      "name": "Bruno Fonseca"
    },
    {
      "name": "Bellenus"
    }
  ],
  "systems": [
    "mta"
  ],
  "languages": [
    {
      "lang": "pt-BR",
      "name": "Português (Brasil)",
      "path": "lang/pt-BR/system.json"
    }
  ],
  "url": "https://gitlab.com/fvtt-brasil/cod",
  "manifest": "https://gitlab.com/fvtt-brasil/cod/-/raw/main/cod_pt-BR/module.json",
  "download": "https://gitlab.com/api/v4/projects/26063738/packages/generic/cod_pt-BR/1.0.2/cod_pt-BR.zip"
}
